%YAML 1.1
%TAG !u! tag:unity3d.com,2011:
--- !u!78 &1
TagManager:
  serializedVersion: 2
  tags:
  - breakable
  - sign
  - enemy
  layers:
  - Default
  - TransparentFX
  - Ignore Raycast
  - 
  - Water
  - UI
  - 
  - 
  - Base
  - MapDetails
  - Player
  - 
  - 
  - 
  - 
  - 
  - 
  - 
  - 
  - 
  - 
  - 
  - 
  - 
  - 
  - 
  - 
  - 
  - 
  - 
  - 
  - 
  m_SortingLayers:
  - name: Default
    uniqueID: 0
    locked: 0
  - name: Base
    uniqueID: 2504913993
    locked: 0
  - name: MapDetails
    uniqueID: 3413636723
    locked: 0
  - name: Signs
    uniqueID: 3607991853
    locked: 0
  - name: Player
    uniqueID: 3888578831
    locked: 0
